{
    "AWSTemplateFormatVersion": "2010-09-09",
    "Description": "",
    "Metadata": {

    },
    "Parameters": {
      "provpccidr": {
          "Description": "This is VPC CIDR",
          "Type": "String",
          "Default": "172.20.0.0/24"
      },
      "prosn1az": {
          "Description": "Choose the AZ for SN1",
          "Type": "AWS::EC2::AvailabilityZone::Name"
      },
      "prosn1cidr": {
          "Description": " CHoose the cidr for SN1",
          "Type": "String",
          "Default": "172.20.0.0/28"
      },
      "prosn2az": {
          "Description": "Choose the AZ for SN2",
          "Type": "AWS::EC2::AvailabilityZone::Name"
      },
      "prosn2cidr": {
          "Description": " CHoose the cidr for SN2",
          "Type": "String",
          "Default": "172.20.0.16/28"
      }

    },
    "Mappings": {

    },
    "Conditions": {

    },
    "Resources": {
      "provpc": {
        "Type": "AWS::EC2::VPC",
        "Properties": {
          "CidrBlock": { "Ref": "provpccidr" },
          "Tags": [{ "Key": "Name", "Value":  "provpc" }]
        }
      },
      "proigw": {
        "Type": "AWS::EC2::InternetGateway",
        "Properties": {
          "Tags": [{ "Key": "Name", "Value":  "proigw" }]
        }
      },
      "AttachGateway": {
        "Type": "AWS::EC2::VPCGatewayAttachment",
        "Properties": {
          "VpcId": { "Ref": "provpc" },
          "InternetGatewayId": { "Ref": "proigw" }
        }
      },
      "prosn1": {
        "Type": "AWS::EC2::Subnet",
        "Properties": {
          "AvailabilityZone": { "Ref": "prosn1az" },
          "VpcId": { "Ref": "provpc" },
          "CidrBlock": { "Ref": "prosn1cidr" },
          "Tags": [{ "Key": "Name", "Value":  "prosn1" }]
        }
      },
      "prosn2": {
        "Type": "AWS::EC2::Subnet",
        "Properties": {
          "AvailabilityZone": { "Ref": "prosn2az" },
          "VpcId": { "Ref": "provpc" },
          "CidrBlock": { "Ref": "prosn2cidr" },
          "Tags": [{ "Key": "Name", "Value":  "prosn2" }]
        }
      },
      "propubrt": {
        "Type": "AWS::EC2::RouteTable",
        "Properties": {
          "VpcId": { "Ref": "provpc" },
          "Tags": [{ "Key": "Name", "Value":  "propubrt" }]
        }
      },
      "proprt": {
        "Type": "AWS::EC2::Route",
        "Properties": {
          "RouteTableId": { "Ref": "propubrt" },
          "DestinationCidrBlock": "0.0.0.0/0",
          "GatewayId": { "Ref": "proigw" }
        }
      },
      "rtsn1ass": {
        "Type": "AWS::EC2::SubnetRouteTableAssociation",
        "Properties": {
          "SubnetId": { "Ref": "prosn1" },
          "RouteTableId": { "Ref": "propubrt" }
        }
      }
    },
    "Outputs": {

    }
}
